module gitlab.com/zedge-oss/config-sync-sidecar

go 1.12

require (
	cloud.google.com/go v0.34.0
	github.com/Flaque/filet v0.0.0-20180310200134-dbf95344df50
	github.com/davecgh/go-spew v1.1.1
	github.com/emicklei/go-restful v2.8.0+incompatible
	github.com/ghodss/yaml v1.0.0
	github.com/go-logr/logr v0.1.0
	github.com/go-logr/zapr v0.1.0
	github.com/gobuffalo/envy v1.6.10
	github.com/gogo/protobuf v1.1.1
	github.com/golang/glog v0.0.0-20160126235308-23def4e6c14b
	github.com/golang/groupcache v0.0.0-20181024230925-c65c006176ff
	github.com/golang/protobuf v1.2.0
	github.com/google/btree v1.0.0
	github.com/google/gofuzz v0.0.0-20170612174753-24818f796faf
	github.com/google/uuid v1.1.0
	github.com/googleapis/gnostic v0.2.0
	github.com/gregjones/httpcache v0.0.0-20181110185634-c63ab54fda8f
	github.com/hashicorp/golang-lru v0.5.0
	github.com/hpcloud/tail v1.0.0
	github.com/imdario/mergo v0.3.6
	github.com/inconshreveable/mousetrap v1.0.0
	github.com/joho/godotenv v1.3.0
	github.com/json-iterator/go v1.1.5
	github.com/markbates/inflect v1.0.4
	github.com/mattbaird/jsonpatch v0.0.0-20171005235357-81af80346b1a
	github.com/modern-go/concurrent v0.0.0-20180306012644-bacd9c7ef1dd
	github.com/modern-go/reflect2 v0.0.0-20180701023420-4b7aa43c6742
	github.com/onsi/ginkgo v1.7.0
	github.com/onsi/gomega v1.4.3
	github.com/pborman/uuid v0.0.0-20180906182336-adf5a7427709
	github.com/petar/GoLLRB v0.0.0-20130427215148-53be0d36a84c
	github.com/peterbourgon/diskv v2.0.1+incompatible
	github.com/pkg/errors v0.8.0
	github.com/rogpeppe/go-internal v1.0.0
	github.com/spf13/afero v1.1.2
	github.com/spf13/cobra v0.0.3
	github.com/spf13/pflag v1.0.3
	go.uber.org/atomic v1.3.2
	go.uber.org/multierr v1.1.0
	go.uber.org/zap v1.9.1
	golang.org/x/crypto v0.0.0-20181203042331-505ab145d0a9
	golang.org/x/net v0.0.0-20181201002055-351d144fa1fc
	golang.org/x/oauth2 v0.0.0-20181203162652-d668ce993890
	golang.org/x/sys v0.0.0-20181206074257-70b957f3b65e
	golang.org/x/text v0.3.0
	golang.org/x/time v0.0.0-20181108054448-85acf8d2951c
	golang.org/x/tools v0.0.0-20181205224935-3576414c54a4
	google.golang.org/appengine v1.3.0
	gopkg.in/fsnotify.v1 v1.4.7
	gopkg.in/inf.v0 v0.9.1
	gopkg.in/tomb.v1 v1.0.0-20141024135613-dd632973f1e7
	gopkg.in/yaml.v2 v2.2.2
	k8s.io/api v0.0.0-20180712090710-2d6f90ab1293
	k8s.io/apiextensions-apiserver v0.0.0-20180808065829-408db4a50408
	k8s.io/apimachinery v0.0.0-20180621070125-103fd098999d
	k8s.io/client-go v0.0.0-20180806134042-1f13a808da65
	k8s.io/code-generator v0.0.0-20181116211957-405721ab9678
	k8s.io/gengo v0.0.0-20181113154421-fd15ee9cc2f7
	k8s.io/klog v0.1.0
	k8s.io/kube-openapi v0.0.0-20181114233023-0317810137be
	sigs.k8s.io/controller-runtime v0.1.7
	sigs.k8s.io/controller-tools v0.1.6
	sigs.k8s.io/testing_frameworks v0.0.0-20180709092217-5818a3a284a1
)
